%YAML 1.1
%TAG !u! tag:unity3d.com,2011:
--- !u!29 &1
SceneSettings:
  m_ObjectHideFlags: 0
  m_PVSData: 
  m_PVSObjectsArray: []
  m_PVSPortalsArray: []
  m_OcclusionBakeSettings:
    smallestOccluder: 5
    smallestHole: .25
    backfaceThreshold: 100
--- !u!104 &2
RenderSettings:
  m_ObjectHideFlags: 0
  serializedVersion: 6
  m_Fog: 0
  m_FogColor: {r: .5, g: .5, b: .5, a: 1}
  m_FogMode: 3
  m_FogDensity: .00999999978
  m_LinearFogStart: 0
  m_LinearFogEnd: 300
  m_AmbientSkyColor: {r: .200000003, g: .200000003, b: .200000003, a: 1}
  m_AmbientEquatorColor: {r: .200000003, g: .200000003, b: .200000003, a: 1}
  m_AmbientGroundColor: {r: .200000003, g: .200000003, b: .200000003, a: 1}
  m_AmbientIntensity: 1
  m_AmbientMode: 3
  m_SkyboxMaterial: {fileID: 0}
  m_HaloStrength: .5
  m_FlareStrength: 1
  m_FlareFadeSpeed: 3
  m_HaloTexture: {fileID: 0}
  m_SpotCookie: {fileID: 10001, guid: 0000000000000000e000000000000000, type: 0}
  m_DefaultReflectionMode: 0
  m_DefaultReflectionResolution: 128
  m_ReflectionBounces: 1
  m_ReflectionIntensity: 1
  m_CustomReflection: {fileID: 0}
  m_Sun: {fileID: 0}
--- !u!196 &3
NavMeshSettings:
  serializedVersion: 2
  m_ObjectHideFlags: 0
  m_BuildSettings:
    serializedVersion: 2
    agentRadius: .5
    agentHeight: 2
    agentSlope: 45
    agentClimb: .400000006
    ledgeDropHeight: 0
    maxJumpAcrossDistance: 0
    accuratePlacement: 0
    minRegionArea: 2
    cellSize: .166666672
    manualCellSize: 0
  m_NavMeshData: {fileID: 0}
--- !u!157 &4
LightmapSettings:
  m_ObjectHideFlags: 0
  serializedVersion: 5
  m_GIWorkflowMode: 1
  m_LightmapsMode: 1
  m_GISettings:
    serializedVersion: 2
    m_BounceScale: 1
    m_IndirectOutputScale: 1
    m_AlbedoBoost: 1
    m_TemporalCoherenceThreshold: 1
    m_EnvironmentLightingMode: 0
    m_EnableBakedLightmaps: 1
    m_EnableRealtimeLightmaps: 0
  m_LightmapEditorSettings:
    serializedVersion: 3
    m_Resolution: 1
    m_BakeResolution: 50
    m_TextureWidth: 1024
    m_TextureHeight: 1024
    m_AOMaxDistance: 1
    m_Padding: 2
    m_CompAOExponent: 0
    m_LightmapParameters: {fileID: 0}
    m_TextureCompression: 0
    m_FinalGather: 0
    m_FinalGatherRayCount: 1024
    m_ReflectionCompression: 2
  m_LightmapSnapshot: {fileID: 0}
  m_RuntimeCPUUsage: 25
--- !u!1 &5
GameObject:
  m_ObjectHideFlags: 0
  m_PrefabParentObject: {fileID: 100000, guid: 4a1142b17f64bbc40871f76529421f77, type: 3}
  m_PrefabInternal: {fileID: 80}
  serializedVersion: 4
  m_Component:
  - 4: {fileID: 28}
  - 111: {fileID: 95}
  m_Layer: 0
  m_Name: AtomBall
  m_TagString: Untagged
  m_Icon: {fileID: 0}
  m_NavMeshLayer: 0
  m_StaticEditorFlags: 0
  m_IsActive: 1
--- !u!1 &6
GameObject:
  m_ObjectHideFlags: 0
  m_PrefabParentObject: {fileID: 100002, guid: 4a1142b17f64bbc40871f76529421f77, type: 3}
  m_PrefabInternal: {fileID: 80}
  serializedVersion: 4
  m_Component:
  - 4: {fileID: 29}
  - 33: {fileID: 64}
  - 23: {fileID: 52}
  m_Layer: 0
  m_Name: AtomBallLines
  m_TagString: Untagged
  m_Icon: {fileID: 0}
  m_NavMeshLayer: 0
  m_StaticEditorFlags: 0
  m_IsActive: 1
--- !u!1 &7
GameObject:
  m_ObjectHideFlags: 0
  m_PrefabParentObject: {fileID: 100004, guid: 4a1142b17f64bbc40871f76529421f77, type: 3}
  m_PrefabInternal: {fileID: 80}
  serializedVersion: 4
  m_Component:
  - 4: {fileID: 30}
  - 33: {fileID: 65}
  - 23: {fileID: 53}
  m_Layer: 0
  m_Name: AtomBallSpheres
  m_TagString: Untagged
  m_Icon: {fileID: 0}
  m_NavMeshLayer: 0
  m_StaticEditorFlags: 0
  m_IsActive: 1
--- !u!1 &8
GameObject:
  m_ObjectHideFlags: 0
  m_PrefabParentObject: {fileID: 100004, guid: 38972d9a807375f4fbdbf2e076aa183f, type: 3}
  m_PrefabInternal: {fileID: 81}
  serializedVersion: 4
  m_Component:
  - 4: {fileID: 31}
  - 33: {fileID: 66}
  - 23: {fileID: 54}
  m_Layer: 0
  m_Name: BombTop
  m_TagString: Untagged
  m_Icon: {fileID: 0}
  m_NavMeshLayer: 0
  m_StaticEditorFlags: 0
  m_IsActive: 1
--- !u!1 &9
GameObject:
  m_ObjectHideFlags: 0
  m_PrefabParentObject: {fileID: 100002, guid: 38972d9a807375f4fbdbf2e076aa183f, type: 3}
  m_PrefabInternal: {fileID: 81}
  serializedVersion: 4
  m_Component:
  - 4: {fileID: 32}
  - 111: {fileID: 92}
  m_Layer: 0
  m_Name: BombBall
  m_TagString: Untagged
  m_Icon: {fileID: 0}
  m_NavMeshLayer: 0
  m_StaticEditorFlags: 0
  m_IsActive: 1
--- !u!1 &10
GameObject:
  m_ObjectHideFlags: 0
  m_PrefabParentObject: {fileID: 100000, guid: 38972d9a807375f4fbdbf2e076aa183f, type: 3}
  m_PrefabInternal: {fileID: 81}
  serializedVersion: 4
  m_Component:
  - 4: {fileID: 33}
  - 33: {fileID: 67}
  - 23: {fileID: 55}
  m_Layer: 0
  m_Name: BombBall
  m_TagString: Untagged
  m_Icon: {fileID: 0}
  m_NavMeshLayer: 0
  m_StaticEditorFlags: 0
  m_IsActive: 1
--- !u!1 &11
GameObject:
  m_ObjectHideFlags: 0
  m_PrefabParentObject: {fileID: 100006, guid: 38972d9a807375f4fbdbf2e076aa183f, type: 3}
  m_PrefabInternal: {fileID: 81}
  serializedVersion: 4
  m_Component:
  - 4: {fileID: 34}
  - 33: {fileID: 68}
  - 23: {fileID: 56}
  m_Layer: 0
  m_Name: BombWick
  m_TagString: Untagged
  m_Icon: {fileID: 0}
  m_NavMeshLayer: 0
  m_StaticEditorFlags: 0
  m_IsActive: 1
--- !u!1 &12
GameObject:
  m_ObjectHideFlags: 0
  m_PrefabParentObject: {fileID: 100004, guid: a97bdcf094fff104d9f67b004b505dd0, type: 3}
  m_PrefabInternal: {fileID: 82}
  serializedVersion: 4
  m_Component:
  - 4: {fileID: 35}
  - 33: {fileID: 69}
  - 23: {fileID: 57}
  m_Layer: 0
  m_Name: BuckyBallLines
  m_TagString: Untagged
  m_Icon: {fileID: 0}
  m_NavMeshLayer: 0
  m_StaticEditorFlags: 0
  m_IsActive: 1
--- !u!1 &13
GameObject:
  m_ObjectHideFlags: 0
  m_PrefabParentObject: {fileID: 100002, guid: a97bdcf094fff104d9f67b004b505dd0, type: 3}
  m_PrefabInternal: {fileID: 82}
  serializedVersion: 4
  m_Component:
  - 4: {fileID: 36}
  - 33: {fileID: 70}
  - 23: {fileID: 58}
  m_Layer: 0
  m_Name: BuckyBallAtoms
  m_TagString: Untagged
  m_Icon: {fileID: 0}
  m_NavMeshLayer: 0
  m_StaticEditorFlags: 0
  m_IsActive: 1
--- !u!1 &14
GameObject:
  m_ObjectHideFlags: 0
  m_PrefabParentObject: {fileID: 100000, guid: a97bdcf094fff104d9f67b004b505dd0, type: 3}
  m_PrefabInternal: {fileID: 82}
  serializedVersion: 4
  m_Component:
  - 4: {fileID: 37}
  - 111: {fileID: 89}
  m_Layer: 0
  m_Name: BuckyBall
  m_TagString: Untagged
  m_Icon: {fileID: 0}
  m_NavMeshLayer: 0
  m_StaticEditorFlags: 0
  m_IsActive: 1
--- !u!1 &15
GameObject:
  m_ObjectHideFlags: 0
  m_PrefabParentObject: {fileID: 100002, guid: 5f603b8c73c81724b9bdc1c65764eb4c, type: 3}
  m_PrefabInternal: {fileID: 83}
  serializedVersion: 4
  m_Component:
  - 4: {fileID: 38}
  - 111: {fileID: 88}
  m_Layer: 0
  m_Name: EyeBall
  m_TagString: Untagged
  m_Icon: {fileID: 0}
  m_NavMeshLayer: 0
  m_StaticEditorFlags: 0
  m_IsActive: 1
--- !u!1 &16
GameObject:
  m_ObjectHideFlags: 0
  m_PrefabParentObject: {fileID: 100000, guid: 5f603b8c73c81724b9bdc1c65764eb4c, type: 3}
  m_PrefabInternal: {fileID: 83}
  serializedVersion: 4
  m_Component:
  - 4: {fileID: 39}
  - 33: {fileID: 71}
  - 23: {fileID: 59}
  m_Layer: 0
  m_Name: EyeBall
  m_TagString: Untagged
  m_Icon: {fileID: 0}
  m_NavMeshLayer: 0
  m_StaticEditorFlags: 0
  m_IsActive: 1
--- !u!1 &17
GameObject:
  m_ObjectHideFlags: 0
  m_PrefabParentObject: {fileID: 100002, guid: c455996f6e6b49d418895f41b5216202, type: 3}
  m_PrefabInternal: {fileID: 84}
  serializedVersion: 4
  m_Component:
  - 4: {fileID: 40}
  - 111: {fileID: 94}
  m_Layer: 0
  m_Name: SpikeBall
  m_TagString: Untagged
  m_Icon: {fileID: 0}
  m_NavMeshLayer: 0
  m_StaticEditorFlags: 0
  m_IsActive: 1
--- !u!1 &18
GameObject:
  m_ObjectHideFlags: 0
  m_PrefabParentObject: {fileID: 100000, guid: c455996f6e6b49d418895f41b5216202, type: 3}
  m_PrefabInternal: {fileID: 84}
  serializedVersion: 4
  m_Component:
  - 4: {fileID: 41}
  - 33: {fileID: 72}
  - 23: {fileID: 60}
  m_Layer: 0
  m_Name: SpikeBall
  m_TagString: Untagged
  m_Icon: {fileID: 0}
  m_NavMeshLayer: 0
  m_StaticEditorFlags: 0
  m_IsActive: 1
--- !u!1 &19
GameObject:
  m_ObjectHideFlags: 0
  m_PrefabParentObject: {fileID: 100000, guid: 5ae1b6d4c894f9c449d33837a633a8ec, type: 3}
  m_PrefabInternal: {fileID: 85}
  serializedVersion: 4
  m_Component:
  - 4: {fileID: 42}
  - 33: {fileID: 73}
  - 23: {fileID: 61}
  m_Layer: 0
  m_Name: SplitMetalBall
  m_TagString: Untagged
  m_Icon: {fileID: 0}
  m_NavMeshLayer: 0
  m_StaticEditorFlags: 0
  m_IsActive: 1
--- !u!1 &20
GameObject:
  m_ObjectHideFlags: 0
  m_PrefabParentObject: {fileID: 100002, guid: 5ae1b6d4c894f9c449d33837a633a8ec, type: 3}
  m_PrefabInternal: {fileID: 85}
  serializedVersion: 4
  m_Component:
  - 4: {fileID: 43}
  - 111: {fileID: 91}
  m_Layer: 0
  m_Name: SplitMetalBall
  m_TagString: Untagged
  m_Icon: {fileID: 0}
  m_NavMeshLayer: 0
  m_StaticEditorFlags: 0
  m_IsActive: 1
--- !u!1 &21
GameObject:
  m_ObjectHideFlags: 0
  m_PrefabParentObject: {fileID: 100000, guid: 61566139d5c1f844aaa682fa50106e58, type: 3}
  m_PrefabInternal: {fileID: 86}
  serializedVersion: 4
  m_Component:
  - 4: {fileID: 44}
  - 33: {fileID: 74}
  - 23: {fileID: 62}
  m_Layer: 0
  m_Name: WoodenBall
  m_TagString: Untagged
  m_Icon: {fileID: 0}
  m_NavMeshLayer: 0
  m_StaticEditorFlags: 0
  m_IsActive: 1
--- !u!1 &22
GameObject:
  m_ObjectHideFlags: 0
  m_PrefabParentObject: {fileID: 100002, guid: 61566139d5c1f844aaa682fa50106e58, type: 3}
  m_PrefabInternal: {fileID: 86}
  serializedVersion: 4
  m_Component:
  - 4: {fileID: 45}
  - 111: {fileID: 93}
  m_Layer: 0
  m_Name: WoodenBall
  m_TagString: Untagged
  m_Icon: {fileID: 0}
  m_NavMeshLayer: 0
  m_StaticEditorFlags: 0
  m_IsActive: 1
--- !u!1 &23
GameObject:
  m_ObjectHideFlags: 0
  m_PrefabParentObject: {fileID: 100000, guid: 74cbada03bcd41d49acec56746acf71e, type: 3}
  m_PrefabInternal: {fileID: 87}
  serializedVersion: 4
  m_Component:
  - 4: {fileID: 46}
  - 33: {fileID: 75}
  - 23: {fileID: 63}
  m_Layer: 0
  m_Name: WheelBall
  m_TagString: Untagged
  m_Icon: {fileID: 0}
  m_NavMeshLayer: 0
  m_StaticEditorFlags: 0
  m_IsActive: 1
--- !u!1 &24
GameObject:
  m_ObjectHideFlags: 0
  m_PrefabParentObject: {fileID: 100002, guid: 74cbada03bcd41d49acec56746acf71e, type: 3}
  m_PrefabInternal: {fileID: 87}
  serializedVersion: 4
  m_Component:
  - 4: {fileID: 47}
  - 111: {fileID: 90}
  m_Layer: 0
  m_Name: WheelBall
  m_TagString: Untagged
  m_Icon: {fileID: 0}
  m_NavMeshLayer: 0
  m_StaticEditorFlags: 0
  m_IsActive: 1
--- !u!1 &25
GameObject:
  m_ObjectHideFlags: 0
  m_PrefabParentObject: {fileID: 0}
  m_PrefabInternal: {fileID: 0}
  serializedVersion: 4
  m_Component:
  - 4: {fileID: 48}
  m_Layer: 0
  m_Name: Balls
  m_TagString: Untagged
  m_Icon: {fileID: 0}
  m_NavMeshLayer: 0
  m_StaticEditorFlags: 0
  m_IsActive: 1
--- !u!1 &26
GameObject:
  m_ObjectHideFlags: 0
  m_PrefabParentObject: {fileID: 0}
  m_PrefabInternal: {fileID: 0}
  serializedVersion: 4
  m_Component:
  - 4: {fileID: 49}
  - 108: {fileID: 78}
  m_Layer: 0
  m_Name: Directional light
  m_TagString: Untagged
  m_Icon: {fileID: 0}
  m_NavMeshLayer: 0
  m_StaticEditorFlags: 0
  m_IsActive: 1
--- !u!1 &27
GameObject:
  m_ObjectHideFlags: 0
  m_PrefabParentObject: {fileID: 0}
  m_PrefabInternal: {fileID: 0}
  serializedVersion: 4
  m_Component:
  - 4: {fileID: 50}
  - 20: {fileID: 51}
  - 92: {fileID: 77}
  - 124: {fileID: 79}
  - 81: {fileID: 76}
  m_Layer: 0
  m_Name: Main Camera
  m_TagString: MainCamera
  m_Icon: {fileID: 0}
  m_NavMeshLayer: 0
  m_StaticEditorFlags: 0
  m_IsActive: 1
--- !u!4 &28
Transform:
  m_ObjectHideFlags: 0
  m_PrefabParentObject: {fileID: 400000, guid: 4a1142b17f64bbc40871f76529421f77, type: 3}
  m_PrefabInternal: {fileID: 80}
  m_GameObject: {fileID: 5}
  m_LocalRotation: {x: 0, y: 0, z: 0, w: 1}
  m_LocalPosition: {x: 0, y: 0, z: -1}
  m_LocalScale: {x: 1, y: 1, z: 1}
  m_Children:
  - {fileID: 29}
  - {fileID: 30}
  m_Father: {fileID: 48}
  m_RootOrder: 0
--- !u!4 &29
Transform:
  m_ObjectHideFlags: 0
  m_PrefabParentObject: {fileID: 400002, guid: 4a1142b17f64bbc40871f76529421f77, type: 3}
  m_PrefabInternal: {fileID: 80}
  m_GameObject: {fileID: 6}
  m_LocalRotation: {x: -.701057374, y: .0922959521, z: -.0922959596, w: .701057374}
  m_LocalPosition: {x: 4.13656235e-05, y: 7.70241095e-05, z: .000130839646}
  m_LocalScale: {x: .500000119, y: .5, z: .500000119}
  m_Children: []
  m_Father: {fileID: 28}
  m_RootOrder: 0
--- !u!4 &30
Transform:
  m_ObjectHideFlags: 0
  m_PrefabParentObject: {fileID: 400004, guid: 4a1142b17f64bbc40871f76529421f77, type: 3}
  m_PrefabInternal: {fileID: 80}
  m_GameObject: {fileID: 7}
  m_LocalRotation: {x: -4.32977997e-17, y: .707106709, z: .707106829, w: -4.32978063e-17}
  m_LocalPosition: {x: -.327362716, y: -.290093243, z: -.159554765}
  m_LocalScale: {x: .0543174148, y: .0543174148, z: -.0543174148}
  m_Children: []
  m_Father: {fileID: 28}
  m_RootOrder: 1
--- !u!4 &31
Transform:
  m_ObjectHideFlags: 0
  m_PrefabParentObject: {fileID: 400004, guid: 38972d9a807375f4fbdbf2e076aa183f, type: 3}
  m_PrefabInternal: {fileID: 81}
  m_GameObject: {fileID: 8}
  m_LocalRotation: {x: 1.6493362e-15, y: 7.4176491e-16, z: -8.81391251e-16, w: 1}
  m_LocalPosition: {x: -1e-15, y: 2.99999991e-15, z: 1.03520918}
  m_LocalScale: {x: .302400023, y: .302400023, z: .560000002}
  m_Children: []
  m_Father: {fileID: 33}
  m_RootOrder: 0
--- !u!4 &32
Transform:
  m_ObjectHideFlags: 0
  m_PrefabParentObject: {fileID: 400002, guid: 38972d9a807375f4fbdbf2e076aa183f, type: 3}
  m_PrefabInternal: {fileID: 81}
  m_GameObject: {fileID: 9}
  m_LocalRotation: {x: 0, y: 0, z: 0, w: 1}
  m_LocalPosition: {x: 0, y: 0, z: 0}
  m_LocalScale: {x: 1, y: 1, z: 1}
  m_Children:
  - {fileID: 33}
  - {fileID: 34}
  m_Father: {fileID: 48}
  m_RootOrder: 1
--- !u!4 &33
Transform:
  m_ObjectHideFlags: 0
  m_PrefabParentObject: {fileID: 400000, guid: 38972d9a807375f4fbdbf2e076aa183f, type: 3}
  m_PrefabInternal: {fileID: 81}
  m_GameObject: {fileID: 10}
  m_LocalRotation: {x: -.707106709, y: 0, z: 0, w: .707106829}
  m_LocalPosition: {x: 1.11062205, y: 0, z: 0}
  m_LocalScale: {x: .5, y: .5, z: .5}
  m_Children:
  - {fileID: 31}
  m_Father: {fileID: 32}
  m_RootOrder: 0
--- !u!4 &34
Transform:
  m_ObjectHideFlags: 0
  m_PrefabParentObject: {fileID: 400006, guid: 38972d9a807375f4fbdbf2e076aa183f, type: 3}
  m_PrefabInternal: {fileID: 81}
  m_GameObject: {fileID: 11}
  m_LocalRotation: {x: -.5, y: .5, z: .49999994, w: .50000006}
  m_LocalPosition: {x: -2.98023224e-08, y: .473081023, z: -2.067903e-08}
  m_LocalScale: {x: .5, y: .5, z: .135865211}
  m_Children: []
  m_Father: {fileID: 32}
  m_RootOrder: 1
--- !u!4 &35
Transform:
  m_ObjectHideFlags: 0
  m_PrefabParentObject: {fileID: 400004, guid: a97bdcf094fff104d9f67b004b505dd0, type: 3}
  m_PrefabInternal: {fileID: 82}
  m_GameObject: {fileID: 12}
  m_LocalRotation: {x: -.707106829, y: 0, z: -0, w: .707106829}
  m_LocalPosition: {x: 0, y: 0, z: 0}
  m_LocalScale: {x: .5, y: .5, z: .5}
  m_Children: []
  m_Father: {fileID: 37}
  m_RootOrder: 1
--- !u!4 &36
Transform:
  m_ObjectHideFlags: 0
  m_PrefabParentObject: {fileID: 400002, guid: a97bdcf094fff104d9f67b004b505dd0, type: 3}
  m_PrefabInternal: {fileID: 82}
  m_GameObject: {fileID: 13}
  m_LocalRotation: {x: 0, y: 0, z: 0, w: 1}
  m_LocalPosition: {x: .681966603, y: .475189209, z: .717038572}
  m_LocalScale: {x: .0543174148, y: .0543174148, z: -.0543174148}
  m_Children: []
  m_Father: {fileID: 37}
  m_RootOrder: 0
--- !u!4 &37
Transform:
  m_ObjectHideFlags: 0
  m_PrefabParentObject: {fileID: 400000, guid: a97bdcf094fff104d9f67b004b505dd0, type: 3}
  m_PrefabInternal: {fileID: 82}
  m_GameObject: {fileID: 14}
  m_LocalRotation: {x: 0, y: 0, z: 0, w: 1}
  m_LocalPosition: {x: 0, y: 0, z: 0}
  m_LocalScale: {x: 1, y: 1, z: 1}
  m_Children:
  - {fileID: 36}
  - {fileID: 35}
  m_Father: {fileID: 48}
  m_RootOrder: 2
--- !u!4 &38
Transform:
  m_ObjectHideFlags: 0
  m_PrefabParentObject: {fileID: 400002, guid: 5f603b8c73c81724b9bdc1c65764eb4c, type: 3}
  m_PrefabInternal: {fileID: 83}
  m_GameObject: {fileID: 15}
  m_LocalRotation: {x: 0, y: .578580439, z: 0, w: .81562531}
  m_LocalPosition: {x: -1.28163397, y: .135003105, z: .327704489}
  m_LocalScale: {x: 1, y: 1, z: 1}
  m_Children:
  - {fileID: 39}
  m_Father: {fileID: 48}
  m_RootOrder: 3
--- !u!4 &39
Transform:
  m_ObjectHideFlags: 0
  m_PrefabParentObject: {fileID: 400000, guid: 5f603b8c73c81724b9bdc1c65764eb4c, type: 3}
  m_PrefabInternal: {fileID: 83}
  m_GameObject: {fileID: 16}
  m_LocalRotation: {x: 9.41569596e-08, y: .707106829, z: .707106709, w: -9.41569667e-08}
  m_LocalPosition: {x: 0, y: 0, z: 0}
  m_LocalScale: {x: .5, y: .5, z: .5}
  m_Children: []
  m_Father: {fileID: 38}
  m_RootOrder: 0
--- !u!4 &40
Transform:
  m_ObjectHideFlags: 0
  m_PrefabParentObject: {fileID: 400002, guid: c455996f6e6b49d418895f41b5216202, type: 3}
  m_PrefabInternal: {fileID: 84}
  m_GameObject: {fileID: 17}
  m_LocalRotation: {x: 0, y: 0, z: 0, w: 1}
  m_LocalPosition: {x: -.560487628, y: .401479721, z: 1.81872082}
  m_LocalScale: {x: 1, y: 1, z: 1}
  m_Children:
  - {fileID: 41}
  m_Father: {fileID: 48}
  m_RootOrder: 4
--- !u!4 &41
Transform:
  m_ObjectHideFlags: 0
  m_PrefabParentObject: {fileID: 400000, guid: c455996f6e6b49d418895f41b5216202, type: 3}
  m_PrefabInternal: {fileID: 84}
  m_GameObject: {fileID: 18}
  m_LocalRotation: {x: -.707106829, y: 0, z: -0, w: .707106829}
  m_LocalPosition: {x: 0, y: 0, z: 0}
  m_LocalScale: {x: 1, y: 1, z: 1}
  m_Children: []
  m_Father: {fileID: 40}
  m_RootOrder: 0
--- !u!4 &42
Transform:
  m_ObjectHideFlags: 0
  m_PrefabParentObject: {fileID: 400000, guid: 5ae1b6d4c894f9c449d33837a633a8ec, type: 3}
  m_PrefabInternal: {fileID: 85}
  m_GameObject: {fileID: 19}
  m_LocalRotation: {x: .707106829, y: .707106709, z: -1.09611264e-07, w: -7.87026622e-08}
  m_LocalPosition: {x: 0, y: 0, z: 0}
  m_LocalScale: {x: .5, y: .5, z: .5}
  m_Children: []
  m_Father: {fileID: 43}
  m_RootOrder: 0
--- !u!4 &43
Transform:
  m_ObjectHideFlags: 0
  m_PrefabParentObject: {fileID: 400002, guid: 5ae1b6d4c894f9c449d33837a633a8ec, type: 3}
  m_PrefabInternal: {fileID: 85}
  m_GameObject: {fileID: 20}
  m_LocalRotation: {x: 0, y: .509444952, z: 0, w: .860503316}
  m_LocalPosition: {x: 1.11046124, y: 0, z: -1}
  m_LocalScale: {x: 1, y: 1, z: 1}
  m_Children:
  - {fileID: 42}
  m_Father: {fileID: 48}
  m_RootOrder: 5
--- !u!4 &44
Transform:
  m_ObjectHideFlags: 0
  m_PrefabParentObject: {fileID: 400000, guid: 61566139d5c1f844aaa682fa50106e58, type: 3}
  m_PrefabInternal: {fileID: 86}
  m_GameObject: {fileID: 21}
  m_LocalRotation: {x: -.707106829, y: 6.18172464e-08, z: 6.18172393e-08, w: .707106829}
  m_LocalPosition: {x: 0, y: 0, z: 0}
  m_LocalScale: {x: .5, y: .5, z: .5}
  m_Children: []
  m_Father: {fileID: 45}
  m_RootOrder: 0
--- !u!4 &45
Transform:
  m_ObjectHideFlags: 0
  m_PrefabParentObject: {fileID: 400002, guid: 61566139d5c1f844aaa682fa50106e58, type: 3}
  m_PrefabInternal: {fileID: 86}
  m_GameObject: {fileID: 22}
  m_LocalRotation: {x: 0, y: .164810434, z: 0, w: .986325324}
  m_LocalPosition: {x: -.17189002, y: .180151939, z: 0}
  m_LocalScale: {x: 1, y: 1, z: 1}
  m_Children:
  - {fileID: 44}
  m_Father: {fileID: 48}
  m_RootOrder: 6
--- !u!4 &46
Transform:
  m_ObjectHideFlags: 0
  m_PrefabParentObject: {fileID: 400000, guid: 74cbada03bcd41d49acec56746acf71e, type: 3}
  m_PrefabInternal: {fileID: 87}
  m_GameObject: {fileID: 23}
  m_LocalRotation: {x: .707106829, y: -.707106709, z: 1.09611264e-07, w: -7.87026622e-08}
  m_LocalPosition: {x: 0, y: 0, z: 0}
  m_LocalScale: {x: .5, y: .5, z: .631377041}
  m_Children: []
  m_Father: {fileID: 47}
  m_RootOrder: 0
--- !u!4 &47
Transform:
  m_ObjectHideFlags: 0
  m_PrefabParentObject: {fileID: 400002, guid: 74cbada03bcd41d49acec56746acf71e, type: 3}
  m_PrefabInternal: {fileID: 87}
  m_GameObject: {fileID: 24}
  m_LocalRotation: {x: 0, y: -.205354229, z: 0, w: .978687763}
  m_LocalPosition: {x: -1.16077316, y: 0, z: -1}
  m_LocalScale: {x: 1, y: 1, z: 1}
  m_Children:
  - {fileID: 46}
  m_Father: {fileID: 48}
  m_RootOrder: 7
--- !u!4 &48
Transform:
  m_ObjectHideFlags: 0
  m_PrefabParentObject: {fileID: 0}
  m_PrefabInternal: {fileID: 0}
  m_GameObject: {fileID: 25}
  m_LocalRotation: {x: 0, y: 0, z: 0, w: 1}
  m_LocalPosition: {x: 0, y: 0, z: 0}
  m_LocalScale: {x: 1, y: 1, z: 1}
  m_Children:
  - {fileID: 28}
  - {fileID: 32}
  - {fileID: 37}
  - {fileID: 38}
  - {fileID: 40}
  - {fileID: 43}
  - {fileID: 45}
  - {fileID: 47}
  m_Father: {fileID: 0}
  m_RootOrder: 0
--- !u!4 &49
Transform:
  m_ObjectHideFlags: 0
  m_PrefabParentObject: {fileID: 0}
  m_PrefabInternal: {fileID: 0}
  m_GameObject: {fileID: 26}
  m_LocalRotation: {x: .412198633, y: .349099815, z: -.124884881, w: .832241237}
  m_LocalPosition: {x: 0, y: 3.60524511, z: 0}
  m_LocalScale: {x: 1, y: 1, z: 1}
  m_Children: []
  m_Father: {fileID: 0}
  m_RootOrder: 1
--- !u!4 &50
Transform:
  m_ObjectHideFlags: 0
  m_PrefabParentObject: {fileID: 0}
  m_PrefabInternal: {fileID: 0}
  m_GameObject: {fileID: 27}
  m_LocalRotation: {x: .184446216, y: 0, z: 0, w: .982842684}
  m_LocalPosition: {x: 0, y: 2.21570015, z: -3.92667198}
  m_LocalScale: {x: 1, y: 1, z: 1}
  m_Children: []
  m_Father: {fileID: 0}
  m_RootOrder: 2
--- !u!20 &51
Camera:
  m_ObjectHideFlags: 0
  m_PrefabParentObject: {fileID: 0}
  m_PrefabInternal: {fileID: 0}
  m_GameObject: {fileID: 27}
  m_Enabled: 1
  serializedVersion: 2
  m_ClearFlags: 1
  m_BackGroundColor: {r: .192156866, g: .301960796, b: .474509805, a: .0196078438}
  m_NormalizedViewPortRect:
    serializedVersion: 2
    x: 0
    y: 0
    width: 1
    height: 1
  near clip plane: .300000012
  far clip plane: 1000
  field of view: 60
  orthographic: 0
  orthographic size: 100
  m_Depth: -1
  m_CullingMask:
    serializedVersion: 2
    m_Bits: 4294967295
  m_RenderingPath: -1
  m_TargetTexture: {fileID: 0}
  m_TargetDisplay: 0
  m_TargetEye: 3
  m_HDR: 0
  m_OcclusionCulling: 1
  m_StereoConvergence: 10
  m_StereoSeparation: .0219999999
  m_StereoMirrorMode: 0
--- !u!23 &52
MeshRenderer:
  m_ObjectHideFlags: 0
  m_PrefabParentObject: {fileID: 2300000, guid: 4a1142b17f64bbc40871f76529421f77,
    type: 3}
  m_PrefabInternal: {fileID: 80}
  m_GameObject: {fileID: 6}
  m_Enabled: 1
  m_CastShadows: 1
  m_ReceiveShadows: 1
  m_Materials:
  - {fileID: 2100000, guid: fc39b425697244aa38f0043619fd4fca, type: 2}
  m_SubsetIndices: 
  m_StaticBatchRoot: {fileID: 0}
  m_UseLightProbes: 1
  m_ReflectionProbeUsage: 1
  m_ProbeAnchor: {fileID: 0}
  m_ScaleInLightmap: 1
  m_PreserveUVs: 0
  m_ImportantGI: 0
  m_AutoUVMaxDistance: .5
  m_AutoUVMaxAngle: 89
  m_LightmapParameters: {fileID: 0}
  m_SortingLayerID: 0
  m_SortingOrder: 0
--- !u!23 &53
MeshRenderer:
  m_ObjectHideFlags: 0
  m_PrefabParentObject: {fileID: 2300002, guid: 4a1142b17f64bbc40871f76529421f77,
    type: 3}
  m_PrefabInternal: {fileID: 80}
  m_GameObject: {fileID: 7}
  m_Enabled: 1
  m_CastShadows: 1
  m_ReceiveShadows: 1
  m_Materials:
  - {fileID: 2100000, guid: 5c353f7057da35640bdff38d63dda4d8, type: 2}
  m_SubsetIndices: 
  m_StaticBatchRoot: {fileID: 0}
  m_UseLightProbes: 1
  m_ReflectionProbeUsage: 1
  m_ProbeAnchor: {fileID: 0}
  m_ScaleInLightmap: 1
  m_PreserveUVs: 0
  m_ImportantGI: 0
  m_AutoUVMaxDistance: .5
  m_AutoUVMaxAngle: 89
  m_LightmapParameters: {fileID: 0}
  m_SortingLayerID: 0
  m_SortingOrder: 0
--- !u!23 &54
MeshRenderer:
  m_ObjectHideFlags: 0
  m_PrefabParentObject: {fileID: 2300002, guid: 38972d9a807375f4fbdbf2e076aa183f,
    type: 3}
  m_PrefabInternal: {fileID: 81}
  m_GameObject: {fileID: 8}
  m_Enabled: 1
  m_CastShadows: 1
  m_ReceiveShadows: 1
  m_Materials:
  - {fileID: 2100000, guid: 7717d08fdcc532b449044fc4b21a7b5a, type: 2}
  m_SubsetIndices: 
  m_StaticBatchRoot: {fileID: 0}
  m_UseLightProbes: 1
  m_ReflectionProbeUsage: 1
  m_ProbeAnchor: {fileID: 0}
  m_ScaleInLightmap: 1
  m_PreserveUVs: 0
  m_ImportantGI: 0
  m_AutoUVMaxDistance: .5
  m_AutoUVMaxAngle: 89
  m_LightmapParameters: {fileID: 0}
  m_SortingLayerID: 0
  m_SortingOrder: 0
--- !u!23 &55
MeshRenderer:
  m_ObjectHideFlags: 0
  m_PrefabParentObject: {fileID: 2300000, guid: 38972d9a807375f4fbdbf2e076aa183f,
    type: 3}
  m_PrefabInternal: {fileID: 81}
  m_GameObject: {fileID: 10}
  m_Enabled: 1
  m_CastShadows: 1
  m_ReceiveShadows: 1
  m_Materials:
  - {fileID: 2100000, guid: 7717d08fdcc532b449044fc4b21a7b5a, type: 2}
  m_SubsetIndices: 
  m_StaticBatchRoot: {fileID: 0}
  m_UseLightProbes: 1
  m_ReflectionProbeUsage: 1
  m_ProbeAnchor: {fileID: 0}
  m_ScaleInLightmap: 1
  m_PreserveUVs: 0
  m_ImportantGI: 0
  m_AutoUVMaxDistance: .5
  m_AutoUVMaxAngle: 89
  m_LightmapParameters: {fileID: 0}
  m_SortingLayerID: 0
  m_SortingOrder: 0
--- !u!23 &56
MeshRenderer:
  m_ObjectHideFlags: 0
  m_PrefabParentObject: {fileID: 2300004, guid: 38972d9a807375f4fbdbf2e076aa183f,
    type: 3}
  m_PrefabInternal: {fileID: 81}
  m_GameObject: {fileID: 11}
  m_Enabled: 1
  m_CastShadows: 1
  m_ReceiveShadows: 1
  m_Materials:
  - {fileID: 2100000, guid: 7717d08fdcc532b449044fc4b21a7b5a, type: 2}
  m_SubsetIndices: 
  m_StaticBatchRoot: {fileID: 0}
  m_UseLightProbes: 1
  m_ReflectionProbeUsage: 1
  m_ProbeAnchor: {fileID: 0}
  m_ScaleInLightmap: 1
  m_PreserveUVs: 0
  m_ImportantGI: 0
  m_AutoUVMaxDistance: .5
  m_AutoUVMaxAngle: 89
  m_LightmapParameters: {fileID: 0}
  m_SortingLayerID: 0
  m_SortingOrder: 0
--- !u!23 &57
MeshRenderer:
  m_ObjectHideFlags: 0
  m_PrefabParentObject: {fileID: 2300002, guid: a97bdcf094fff104d9f67b004b505dd0,
    type: 3}
  m_PrefabInternal: {fileID: 82}
  m_GameObject: {fileID: 12}
  m_Enabled: 1
  m_CastShadows: 1
  m_ReceiveShadows: 1
  m_Materials:
  - {fileID: 2100000, guid: 5c792dc100d9141b387f1d0ac0bb491e, type: 2}
  m_SubsetIndices: 
  m_StaticBatchRoot: {fileID: 0}
  m_UseLightProbes: 1
  m_ReflectionProbeUsage: 1
  m_ProbeAnchor: {fileID: 0}
  m_ScaleInLightmap: 1
  m_PreserveUVs: 0
  m_ImportantGI: 0
  m_AutoUVMaxDistance: .5
  m_AutoUVMaxAngle: 89
  m_LightmapParameters: {fileID: 0}
  m_SortingLayerID: 0
  m_SortingOrder: 0
--- !u!23 &58
MeshRenderer:
  m_ObjectHideFlags: 0
  m_PrefabParentObject: {fileID: 2300000, guid: a97bdcf094fff104d9f67b004b505dd0,
    type: 3}
  m_PrefabInternal: {fileID: 82}
  m_GameObject: {fileID: 13}
  m_Enabled: 1
  m_CastShadows: 1
  m_ReceiveShadows: 1
  m_Materials:
  - {fileID: 2100000, guid: 5c792dc100d9141b387f1d0ac0bb491e, type: 2}
  m_SubsetIndices: 
  m_StaticBatchRoot: {fileID: 0}
  m_UseLightProbes: 1
  m_ReflectionProbeUsage: 1
  m_ProbeAnchor: {fileID: 0}
  m_ScaleInLightmap: 1
  m_PreserveUVs: 0
  m_ImportantGI: 0
  m_AutoUVMaxDistance: .5
  m_AutoUVMaxAngle: 89
  m_LightmapParameters: {fileID: 0}
  m_SortingLayerID: 0
  m_SortingOrder: 0
--- !u!23 &59
MeshRenderer:
  m_ObjectHideFlags: 0
  m_PrefabParentObject: {fileID: 2300000, guid: 5f603b8c73c81724b9bdc1c65764eb4c,
    type: 3}
  m_PrefabInternal: {fileID: 83}
  m_GameObject: {fileID: 16}
  m_Enabled: 1
  m_CastShadows: 1
  m_ReceiveShadows: 1
  m_Materials:
  - {fileID: 2100000, guid: 574a32f1fd43e0e498988286b3eeb64b, type: 2}
  m_SubsetIndices: 
  m_StaticBatchRoot: {fileID: 0}
  m_UseLightProbes: 1
  m_ReflectionProbeUsage: 1
  m_ProbeAnchor: {fileID: 0}
  m_ScaleInLightmap: 1
  m_PreserveUVs: 0
  m_ImportantGI: 0
  m_AutoUVMaxDistance: .5
  m_AutoUVMaxAngle: 89
  m_LightmapParameters: {fileID: 0}
  m_SortingLayerID: 0
  m_SortingOrder: 0
--- !u!23 &60
MeshRenderer:
  m_ObjectHideFlags: 0
  m_PrefabParentObject: {fileID: 2300000, guid: c455996f6e6b49d418895f41b5216202,
    type: 3}
  m_PrefabInternal: {fileID: 84}
  m_GameObject: {fileID: 18}
  m_Enabled: 1
  m_CastShadows: 1
  m_ReceiveShadows: 1
  m_Materials:
  - {fileID: 2100000, guid: 056d79484fff9e84dafaa83f1d7ccbb1, type: 2}
  m_SubsetIndices: 
  m_StaticBatchRoot: {fileID: 0}
  m_UseLightProbes: 1
  m_ReflectionProbeUsage: 1
  m_ProbeAnchor: {fileID: 0}
  m_ScaleInLightmap: 1
  m_PreserveUVs: 0
  m_ImportantGI: 0
  m_AutoUVMaxDistance: .5
  m_AutoUVMaxAngle: 89
  m_LightmapParameters: {fileID: 0}
  m_SortingLayerID: 0
  m_SortingOrder: 0
--- !u!23 &61
MeshRenderer:
  m_ObjectHideFlags: 0
  m_PrefabParentObject: {fileID: 2300000, guid: 5ae1b6d4c894f9c449d33837a633a8ec,
    type: 3}
  m_PrefabInternal: {fileID: 85}
  m_GameObject: {fileID: 19}
  m_Enabled: 1
  m_CastShadows: 1
  m_ReceiveShadows: 1
  m_Materials:
  - {fileID: 2100000, guid: 6a15b1f15432b6f4b9a8066e1e6ca4df, type: 2}
  m_SubsetIndices: 
  m_StaticBatchRoot: {fileID: 0}
  m_UseLightProbes: 1
  m_ReflectionProbeUsage: 1
  m_ProbeAnchor: {fileID: 0}
  m_ScaleInLightmap: 1
  m_PreserveUVs: 0
  m_ImportantGI: 0
  m_AutoUVMaxDistance: .5
  m_AutoUVMaxAngle: 89
  m_LightmapParameters: {fileID: 0}
  m_SortingLayerID: 0
  m_SortingOrder: 0
--- !u!23 &62
MeshRenderer:
  m_ObjectHideFlags: 0
  m_PrefabParentObject: {fileID: 2300000, guid: 61566139d5c1f844aaa682fa50106e58,
    type: 3}
  m_PrefabInternal: {fileID: 86}
  m_GameObject: {fileID: 21}
  m_Enabled: 1
  m_CastShadows: 1
  m_ReceiveShadows: 1
  m_Materials:
  - {fileID: 2100000, guid: 846721efcb18b9b459ce40b282e84240, type: 2}
  m_SubsetIndices: 
  m_StaticBatchRoot: {fileID: 0}
  m_UseLightProbes: 1
  m_ReflectionProbeUsage: 1
  m_ProbeAnchor: {fileID: 0}
  m_ScaleInLightmap: 1
  m_PreserveUVs: 0
  m_ImportantGI: 0
  m_AutoUVMaxDistance: .5
  m_AutoUVMaxAngle: 89
  m_LightmapParameters: {fileID: 0}
  m_SortingLayerID: 0
  m_SortingOrder: 0
--- !u!23 &63
MeshRenderer:
  m_ObjectHideFlags: 0
  m_PrefabParentObject: {fileID: 2300000, guid: 74cbada03bcd41d49acec56746acf71e,
    type: 3}
  m_PrefabInternal: {fileID: 87}
  m_GameObject: {fileID: 23}
  m_Enabled: 1
  m_CastShadows: 1
  m_ReceiveShadows: 1
  m_Materials:
  - {fileID: 2100000, guid: 40db05b0756f19c43ae471505d9b8ce5, type: 2}
  m_SubsetIndices: 
  m_StaticBatchRoot: {fileID: 0}
  m_UseLightProbes: 1
  m_ReflectionProbeUsage: 1
  m_ProbeAnchor: {fileID: 0}
  m_ScaleInLightmap: 1
  m_PreserveUVs: 0
  m_ImportantGI: 0
  m_AutoUVMaxDistance: .5
  m_AutoUVMaxAngle: 89
  m_LightmapParameters: {fileID: 0}
  m_SortingLayerID: 0
  m_SortingOrder: 0
--- !u!33 &64
MeshFilter:
  m_ObjectHideFlags: 0
  m_PrefabParentObject: {fileID: 3300000, guid: 4a1142b17f64bbc40871f76529421f77,
    type: 3}
  m_PrefabInternal: {fileID: 80}
  m_GameObject: {fileID: 6}
  m_Mesh: {fileID: 4300002, guid: 4a1142b17f64bbc40871f76529421f77, type: 3}
--- !u!33 &65
MeshFilter:
  m_ObjectHideFlags: 0
  m_PrefabParentObject: {fileID: 3300002, guid: 4a1142b17f64bbc40871f76529421f77,
    type: 3}
  m_PrefabInternal: {fileID: 80}
  m_GameObject: {fileID: 7}
  m_Mesh: {fileID: 4300000, guid: 4a1142b17f64bbc40871f76529421f77, type: 3}
--- !u!33 &66
MeshFilter:
  m_ObjectHideFlags: 0
  m_PrefabParentObject: {fileID: 3300002, guid: 38972d9a807375f4fbdbf2e076aa183f,
    type: 3}
  m_PrefabInternal: {fileID: 81}
  m_GameObject: {fileID: 8}
  m_Mesh: {fileID: 4300004, guid: 38972d9a807375f4fbdbf2e076aa183f, type: 3}
--- !u!33 &67
MeshFilter:
  m_ObjectHideFlags: 0
  m_PrefabParentObject: {fileID: 3300000, guid: 38972d9a807375f4fbdbf2e076aa183f,
    type: 3}
  m_PrefabInternal: {fileID: 81}
  m_GameObject: {fileID: 10}
  m_Mesh: {fileID: 4300002, guid: 38972d9a807375f4fbdbf2e076aa183f, type: 3}
--- !u!33 &68
MeshFilter:
  m_ObjectHideFlags: 0
  m_PrefabParentObject: {fileID: 3300004, guid: 38972d9a807375f4fbdbf2e076aa183f,
    type: 3}
  m_PrefabInternal: {fileID: 81}
  m_GameObject: {fileID: 11}
  m_Mesh: {fileID: 4300006, guid: 38972d9a807375f4fbdbf2e076aa183f, type: 3}
--- !u!33 &69
MeshFilter:
  m_ObjectHideFlags: 0
  m_PrefabParentObject: {fileID: 3300002, guid: a97bdcf094fff104d9f67b004b505dd0,
    type: 3}
  m_PrefabInternal: {fileID: 82}
  m_GameObject: {fileID: 12}
  m_Mesh: {fileID: 4300004, guid: a97bdcf094fff104d9f67b004b505dd0, type: 3}
--- !u!33 &70
MeshFilter:
  m_ObjectHideFlags: 0
  m_PrefabParentObject: {fileID: 3300000, guid: a97bdcf094fff104d9f67b004b505dd0,
    type: 3}
  m_PrefabInternal: {fileID: 82}
  m_GameObject: {fileID: 13}
  m_Mesh: {fileID: 4300006, guid: a97bdcf094fff104d9f67b004b505dd0, type: 3}
--- !u!33 &71
MeshFilter:
  m_ObjectHideFlags: 0
  m_PrefabParentObject: {fileID: 3300000, guid: 5f603b8c73c81724b9bdc1c65764eb4c,
    type: 3}
  m_PrefabInternal: {fileID: 83}
  m_GameObject: {fileID: 16}
  m_Mesh: {fileID: 4300002, guid: 5f603b8c73c81724b9bdc1c65764eb4c, type: 3}
--- !u!33 &72
MeshFilter:
  m_ObjectHideFlags: 0
  m_PrefabParentObject: {fileID: 3300000, guid: c455996f6e6b49d418895f41b5216202,
    type: 3}
  m_PrefabInternal: {fileID: 84}
  m_GameObject: {fileID: 18}
  m_Mesh: {fileID: 4300002, guid: c455996f6e6b49d418895f41b5216202, type: 3}
--- !u!33 &73
MeshFilter:
  m_ObjectHideFlags: 0
  m_PrefabParentObject: {fileID: 3300000, guid: 5ae1b6d4c894f9c449d33837a633a8ec,
    type: 3}
  m_PrefabInternal: {fileID: 85}
  m_GameObject: {fileID: 19}
  m_Mesh: {fileID: 4300000, guid: 5ae1b6d4c894f9c449d33837a633a8ec, type: 3}
--- !u!33 &74
MeshFilter:
  m_ObjectHideFlags: 0
  m_PrefabParentObject: {fileID: 3300000, guid: 61566139d5c1f844aaa682fa50106e58,
    type: 3}
  m_PrefabInternal: {fileID: 86}
  m_GameObject: {fileID: 21}
  m_Mesh: {fileID: 4300000, guid: 61566139d5c1f844aaa682fa50106e58, type: 3}
--- !u!33 &75
MeshFilter:
  m_ObjectHideFlags: 0
  m_PrefabParentObject: {fileID: 3300000, guid: 74cbada03bcd41d49acec56746acf71e,
    type: 3}
  m_PrefabInternal: {fileID: 87}
  m_GameObject: {fileID: 23}
  m_Mesh: {fileID: 4300000, guid: 74cbada03bcd41d49acec56746acf71e, type: 3}
--- !u!81 &76
AudioListener:
  m_ObjectHideFlags: 0
  m_PrefabParentObject: {fileID: 0}
  m_PrefabInternal: {fileID: 0}
  m_GameObject: {fileID: 27}
  m_Enabled: 1
--- !u!92 &77
Behaviour:
  m_ObjectHideFlags: 0
  m_PrefabParentObject: {fileID: 0}
  m_PrefabInternal: {fileID: 0}
  m_GameObject: {fileID: 27}
  m_Enabled: 1
--- !u!108 &78
Light:
  m_ObjectHideFlags: 0
  m_PrefabParentObject: {fileID: 0}
  m_PrefabInternal: {fileID: 0}
  m_GameObject: {fileID: 26}
  m_Enabled: 1
  serializedVersion: 6
  m_Type: 1
  m_Color: {r: 1, g: 1, b: 1, a: 1}
  m_Intensity: 1
  m_Range: 10
  m_SpotAngle: 30
  m_CookieSize: 10
  m_Shadows:
    m_Type: 0
    m_Resolution: -1
    m_Strength: 1
    m_Bias: .0500000007
    m_NormalBias: .400000006
  m_Cookie: {fileID: 0}
  m_DrawHalo: 0
  m_Flare: {fileID: 0}
  m_RenderMode: 0
  m_CullingMask:
    serializedVersion: 2
    m_Bits: 4294967295
  m_Lightmapping: 1
  m_BounceIntensity: 1
  m_ShadowRadius: 0
  m_ShadowAngle: 0
  m_AreaSize: {x: 1, y: 1}
--- !u!124 &79
Behaviour:
  m_ObjectHideFlags: 0
  m_PrefabParentObject: {fileID: 0}
  m_PrefabInternal: {fileID: 0}
  m_GameObject: {fileID: 27}
  m_Enabled: 1
--- !u!1001 &80
Prefab:
  m_ObjectHideFlags: 0
  serializedVersion: 2
  m_Modification:
    m_TransformParent: {fileID: 48}
    m_Modifications:
    - target: {fileID: 400000, guid: 4a1142b17f64bbc40871f76529421f77, type: 3}
      propertyPath: m_LocalRotation.y
      value: 0
      objectReference: {fileID: 0}
    - target: {fileID: 400000, guid: 4a1142b17f64bbc40871f76529421f77, type: 3}
      propertyPath: m_LocalRotation.z
      value: 0
      objectReference: {fileID: 0}
    - target: {fileID: 400000, guid: 4a1142b17f64bbc40871f76529421f77, type: 3}
      propertyPath: m_LocalPosition.x
      value: 0
      objectReference: {fileID: 0}
    - target: {fileID: 400000, guid: 4a1142b17f64bbc40871f76529421f77, type: 3}
      propertyPath: m_LocalPosition.z
      value: -1
      objectReference: {fileID: 0}
    m_RemovedComponents: []
  m_ParentPrefab: {fileID: 100100000, guid: 4a1142b17f64bbc40871f76529421f77, type: 3}
  m_RootGameObject: {fileID: 5}
  m_IsPrefabParent: 0
--- !u!1001 &81
Prefab:
  m_ObjectHideFlags: 0
  serializedVersion: 2
  m_Modification:
    m_TransformParent: {fileID: 48}
    m_Modifications:
    - target: {fileID: 400000, guid: 38972d9a807375f4fbdbf2e076aa183f, type: 3}
      propertyPath: m_LocalRotation.y
      value: 0
      objectReference: {fileID: 0}
    - target: {fileID: 400000, guid: 38972d9a807375f4fbdbf2e076aa183f, type: 3}
      propertyPath: m_LocalRotation.z
      value: 0
      objectReference: {fileID: 0}
    - target: {fileID: 400000, guid: 38972d9a807375f4fbdbf2e076aa183f, type: 3}
      propertyPath: m_LocalPosition.x
      value: 1.11062205
      objectReference: {fileID: 0}
    m_RemovedComponents: []
  m_ParentPrefab: {fileID: 100100000, guid: 38972d9a807375f4fbdbf2e076aa183f, type: 3}
  m_RootGameObject: {fileID: 9}
  m_IsPrefabParent: 0
--- !u!1001 &82
Prefab:
  m_ObjectHideFlags: 0
  serializedVersion: 2
  m_Modification:
    m_TransformParent: {fileID: 48}
    m_Modifications:
    - target: {fileID: 400002, guid: a97bdcf094fff104d9f67b004b505dd0, type: 3}
      propertyPath: m_LocalRotation.y
      value: 0
      objectReference: {fileID: 0}
    - target: {fileID: 400002, guid: a97bdcf094fff104d9f67b004b505dd0, type: 3}
      propertyPath: m_LocalRotation.z
      value: 0
      objectReference: {fileID: 0}
    - target: {fileID: 400002, guid: a97bdcf094fff104d9f67b004b505dd0, type: 3}
      propertyPath: m_LocalPosition.x
      value: .681966603
      objectReference: {fileID: 0}
    - target: {fileID: 400002, guid: a97bdcf094fff104d9f67b004b505dd0, type: 3}
      propertyPath: m_LocalPosition.y
      value: .475189209
      objectReference: {fileID: 0}
    - target: {fileID: 400002, guid: a97bdcf094fff104d9f67b004b505dd0, type: 3}
      propertyPath: m_LocalPosition.z
      value: .717038572
      objectReference: {fileID: 0}
    m_RemovedComponents: []
  m_ParentPrefab: {fileID: 100100000, guid: a97bdcf094fff104d9f67b004b505dd0, type: 3}
  m_RootGameObject: {fileID: 14}
  m_IsPrefabParent: 0
--- !u!1001 &83
Prefab:
  m_ObjectHideFlags: 0
  serializedVersion: 2
  m_Modification:
    m_TransformParent: {fileID: 48}
    m_Modifications:
    - target: {fileID: 400002, guid: 5f603b8c73c81724b9bdc1c65764eb4c, type: 3}
      propertyPath: m_LocalRotation.y
      value: .578580439
      objectReference: {fileID: 0}
    - target: {fileID: 400002, guid: 5f603b8c73c81724b9bdc1c65764eb4c, type: 3}
      propertyPath: m_LocalRotation.z
      value: 0
      objectReference: {fileID: 0}
    - target: {fileID: 400002, guid: 5f603b8c73c81724b9bdc1c65764eb4c, type: 3}
      propertyPath: m_LocalRotation.w
      value: .81562531
      objectReference: {fileID: 0}
    - target: {fileID: 400002, guid: 5f603b8c73c81724b9bdc1c65764eb4c, type: 3}
      propertyPath: m_LocalPosition.x
      value: -1.28163397
      objectReference: {fileID: 0}
    - target: {fileID: 400002, guid: 5f603b8c73c81724b9bdc1c65764eb4c, type: 3}
      propertyPath: m_LocalPosition.y
      value: .135003105
      objectReference: {fileID: 0}
    - target: {fileID: 400002, guid: 5f603b8c73c81724b9bdc1c65764eb4c, type: 3}
      propertyPath: m_LocalPosition.z
      value: .327704489
      objectReference: {fileID: 0}
    m_RemovedComponents: []
  m_ParentPrefab: {fileID: 100100000, guid: 5f603b8c73c81724b9bdc1c65764eb4c, type: 3}
  m_RootGameObject: {fileID: 15}
  m_IsPrefabParent: 0
--- !u!1001 &84
Prefab:
  m_ObjectHideFlags: 0
  serializedVersion: 2
  m_Modification:
    m_TransformParent: {fileID: 48}
    m_Modifications:
    - target: {fileID: 400002, guid: c455996f6e6b49d418895f41b5216202, type: 3}
      propertyPath: m_LocalRotation.y
      value: 0
      objectReference: {fileID: 0}
    - target: {fileID: 400002, guid: c455996f6e6b49d418895f41b5216202, type: 3}
      propertyPath: m_LocalRotation.z
      value: 0
      objectReference: {fileID: 0}
    - target: {fileID: 400002, guid: c455996f6e6b49d418895f41b5216202, type: 3}
      propertyPath: m_LocalPosition.x
      value: -.560487628
      objectReference: {fileID: 0}
    - target: {fileID: 400002, guid: c455996f6e6b49d418895f41b5216202, type: 3}
      propertyPath: m_LocalPosition.y
      value: .401479721
      objectReference: {fileID: 0}
    - target: {fileID: 400002, guid: c455996f6e6b49d418895f41b5216202, type: 3}
      propertyPath: m_LocalPosition.z
      value: 1.81872082
      objectReference: {fileID: 0}
    m_RemovedComponents: []
  m_ParentPrefab: {fileID: 100100000, guid: c455996f6e6b49d418895f41b5216202, type: 3}
  m_RootGameObject: {fileID: 17}
  m_IsPrefabParent: 0
--- !u!1001 &85
Prefab:
  m_ObjectHideFlags: 0
  serializedVersion: 2
  m_Modification:
    m_TransformParent: {fileID: 48}
    m_Modifications:
    - target: {fileID: 400002, guid: 5ae1b6d4c894f9c449d33837a633a8ec, type: 3}
      propertyPath: m_LocalRotation.y
      value: .509444952
      objectReference: {fileID: 0}
    - target: {fileID: 400002, guid: 5ae1b6d4c894f9c449d33837a633a8ec, type: 3}
      propertyPath: m_LocalRotation.z
      value: 0
      objectReference: {fileID: 0}
    - target: {fileID: 400002, guid: 5ae1b6d4c894f9c449d33837a633a8ec, type: 3}
      propertyPath: m_LocalRotation.w
      value: .860503316
      objectReference: {fileID: 0}
    - target: {fileID: 400002, guid: 5ae1b6d4c894f9c449d33837a633a8ec, type: 3}
      propertyPath: m_LocalPosition.x
      value: 1.11046124
      objectReference: {fileID: 0}
    - target: {fileID: 400002, guid: 5ae1b6d4c894f9c449d33837a633a8ec, type: 3}
      propertyPath: m_LocalPosition.z
      value: -1
      objectReference: {fileID: 0}
    m_RemovedComponents: []
  m_ParentPrefab: {fileID: 100100000, guid: 5ae1b6d4c894f9c449d33837a633a8ec, type: 3}
  m_RootGameObject: {fileID: 20}
  m_IsPrefabParent: 0
--- !u!1001 &86
Prefab:
  m_ObjectHideFlags: 0
  serializedVersion: 2
  m_Modification:
    m_TransformParent: {fileID: 48}
    m_Modifications:
    - target: {fileID: 400002, guid: 61566139d5c1f844aaa682fa50106e58, type: 3}
      propertyPath: m_LocalRotation.y
      value: .164810434
      objectReference: {fileID: 0}
    - target: {fileID: 400002, guid: 61566139d5c1f844aaa682fa50106e58, type: 3}
      propertyPath: m_LocalRotation.z
      value: 0
      objectReference: {fileID: 0}
    - target: {fileID: 400002, guid: 61566139d5c1f844aaa682fa50106e58, type: 3}
      propertyPath: m_LocalRotation.w
      value: .986325324
      objectReference: {fileID: 0}
    - target: {fileID: 400002, guid: 61566139d5c1f844aaa682fa50106e58, type: 3}
      propertyPath: m_LocalPosition.x
      value: -.17189002
      objectReference: {fileID: 0}
    - target: {fileID: 400002, guid: 61566139d5c1f844aaa682fa50106e58, type: 3}
      propertyPath: m_LocalPosition.y
      value: .180151939
      objectReference: {fileID: 0}
    m_RemovedComponents: []
  m_ParentPrefab: {fileID: 100100000, guid: 61566139d5c1f844aaa682fa50106e58, type: 3}
  m_RootGameObject: {fileID: 22}
  m_IsPrefabParent: 0
--- !u!1001 &87
Prefab:
  m_ObjectHideFlags: 0
  serializedVersion: 2
  m_Modification:
    m_TransformParent: {fileID: 48}
    m_Modifications:
    - target: {fileID: 400002, guid: 74cbada03bcd41d49acec56746acf71e, type: 3}
      propertyPath: m_LocalRotation.y
      value: -.205354214
      objectReference: {fileID: 0}
    - target: {fileID: 400002, guid: 74cbada03bcd41d49acec56746acf71e, type: 3}
      propertyPath: m_LocalRotation.z
      value: 0
      objectReference: {fileID: 0}
    - target: {fileID: 400002, guid: 74cbada03bcd41d49acec56746acf71e, type: 3}
      propertyPath: m_LocalRotation.w
      value: .978687704
      objectReference: {fileID: 0}
    - target: {fileID: 400002, guid: 74cbada03bcd41d49acec56746acf71e, type: 3}
      propertyPath: m_LocalPosition.x
      value: -1.16077316
      objectReference: {fileID: 0}
    - target: {fileID: 400002, guid: 74cbada03bcd41d49acec56746acf71e, type: 3}
      propertyPath: m_LocalPosition.z
      value: -1
      objectReference: {fileID: 0}
    m_RemovedComponents: []
  m_ParentPrefab: {fileID: 100100000, guid: 74cbada03bcd41d49acec56746acf71e, type: 3}
  m_RootGameObject: {fileID: 24}
  m_IsPrefabParent: 0
--- !u!111 &88
Animation:
  m_ObjectHideFlags: 0
  m_PrefabParentObject: {fileID: 11100000, guid: 5f603b8c73c81724b9bdc1c65764eb4c,
    type: 3}
  m_PrefabInternal: {fileID: 83}
  m_GameObject: {fileID: 15}
  m_Enabled: 1
  serializedVersion: 3
  m_Animation: {fileID: 7400000, guid: 5f603b8c73c81724b9bdc1c65764eb4c, type: 3}
  m_Animations:
  - {fileID: 7400000, guid: 5f603b8c73c81724b9bdc1c65764eb4c, type: 3}
  m_WrapMode: 0
  m_PlayAutomatically: 1
  m_AnimatePhysics: 0
  m_CullingType: 0
--- !u!111 &89
Animation:
  m_ObjectHideFlags: 0
  m_PrefabParentObject: {fileID: 11100000, guid: a97bdcf094fff104d9f67b004b505dd0,
    type: 3}
  m_PrefabInternal: {fileID: 82}
  m_GameObject: {fileID: 14}
  m_Enabled: 1
  serializedVersion: 3
  m_Animation: {fileID: 7400000, guid: a97bdcf094fff104d9f67b004b505dd0, type: 3}
  m_Animations:
  - {fileID: 7400000, guid: a97bdcf094fff104d9f67b004b505dd0, type: 3}
  m_WrapMode: 0
  m_PlayAutomatically: 1
  m_AnimatePhysics: 0
  m_CullingType: 0
--- !u!111 &90
Animation:
  m_ObjectHideFlags: 0
  m_PrefabParentObject: {fileID: 11100000, guid: 74cbada03bcd41d49acec56746acf71e,
    type: 3}
  m_PrefabInternal: {fileID: 87}
  m_GameObject: {fileID: 24}
  m_Enabled: 1
  serializedVersion: 3
  m_Animation: {fileID: 7400000, guid: 74cbada03bcd41d49acec56746acf71e, type: 3}
  m_Animations:
  - {fileID: 7400000, guid: 74cbada03bcd41d49acec56746acf71e, type: 3}
  m_WrapMode: 0
  m_PlayAutomatically: 1
  m_AnimatePhysics: 0
  m_CullingType: 0
--- !u!111 &91
Animation:
  m_ObjectHideFlags: 0
  m_PrefabParentObject: {fileID: 11100000, guid: 5ae1b6d4c894f9c449d33837a633a8ec,
    type: 3}
  m_PrefabInternal: {fileID: 85}
  m_GameObject: {fileID: 20}
  m_Enabled: 1
  serializedVersion: 3
  m_Animation: {fileID: 7400000, guid: 5ae1b6d4c894f9c449d33837a633a8ec, type: 3}
  m_Animations:
  - {fileID: 7400000, guid: 5ae1b6d4c894f9c449d33837a633a8ec, type: 3}
  m_WrapMode: 0
  m_PlayAutomatically: 1
  m_AnimatePhysics: 0
  m_CullingType: 0
--- !u!111 &92
Animation:
  m_ObjectHideFlags: 0
  m_PrefabParentObject: {fileID: 11100000, guid: 38972d9a807375f4fbdbf2e076aa183f,
    type: 3}
  m_PrefabInternal: {fileID: 81}
  m_GameObject: {fileID: 9}
  m_Enabled: 1
  serializedVersion: 3
  m_Animation: {fileID: 7400000, guid: 38972d9a807375f4fbdbf2e076aa183f, type: 3}
  m_Animations:
  - {fileID: 7400000, guid: 38972d9a807375f4fbdbf2e076aa183f, type: 3}
  m_WrapMode: 0
  m_PlayAutomatically: 1
  m_AnimatePhysics: 0
  m_CullingType: 0
--- !u!111 &93
Animation:
  m_ObjectHideFlags: 0
  m_PrefabParentObject: {fileID: 11100000, guid: 61566139d5c1f844aaa682fa50106e58,
    type: 3}
  m_PrefabInternal: {fileID: 86}
  m_GameObject: {fileID: 22}
  m_Enabled: 1
  serializedVersion: 3
  m_Animation: {fileID: 7400000, guid: 61566139d5c1f844aaa682fa50106e58, type: 3}
  m_Animations:
  - {fileID: 7400000, guid: 61566139d5c1f844aaa682fa50106e58, type: 3}
  m_WrapMode: 0
  m_PlayAutomatically: 1
  m_AnimatePhysics: 0
  m_CullingType: 0
--- !u!111 &94
Animation:
  m_ObjectHideFlags: 0
  m_PrefabParentObject: {fileID: 11100000, guid: c455996f6e6b49d418895f41b5216202,
    type: 3}
  m_PrefabInternal: {fileID: 84}
  m_GameObject: {fileID: 17}
  m_Enabled: 1
  serializedVersion: 3
  m_Animation: {fileID: 7400000, guid: c455996f6e6b49d418895f41b5216202, type: 3}
  m_Animations:
  - {fileID: 7400000, guid: c455996f6e6b49d418895f41b5216202, type: 3}
  m_WrapMode: 0
  m_PlayAutomatically: 1
  m_AnimatePhysics: 0
  m_CullingType: 0
--- !u!111 &95
Animation:
  m_ObjectHideFlags: 0
  m_PrefabParentObject: {fileID: 11100000, guid: 4a1142b17f64bbc40871f76529421f77,
    type: 3}
  m_PrefabInternal: {fileID: 80}
  m_GameObject: {fileID: 5}
  m_Enabled: 1
  serializedVersion: 3
  m_Animation: {fileID: 7400000, guid: 4a1142b17f64bbc40871f76529421f77, type: 3}
  m_Animations:
  - {fileID: 7400000, guid: 4a1142b17f64bbc40871f76529421f77, type: 3}
  m_WrapMode: 0
  m_PlayAutomatically: 1
  m_AnimatePhysics: 0
  m_CullingType: 0
